<?xml version="1.0" encoding="UTF-8"?>
<!-- Created with Inkscape (http://www.inkscape.org/) -->
<svg width="94.243mm" height="11.596mm" version="1.1" viewBox="0 0 94.242917 11.59563" xmlns="http://www.w3.org/2000/svg" xmlns:cc="http://creativecommons.org/ns#" xmlns:dc="http://purl.org/dc/elements/1.1/" xmlns:rdf="http://www.w3.org/1999/02/22-rdf-syntax-ns#">
 <defs>
  <clipPath id="clipPath4525">
   <path d="m1.0729e-5 0h720v405.12h-720z" clip-rule="evenodd"/>
  </clipPath>
  <clipPath id="clipPath4537">
   <path d="m1.0729e-5 0h720v405.12h-720z" clip-rule="evenodd"/>
  </clipPath>
  <clipPath id="clipPath4573">
   <path d="m1.0729e-5 0h720v405.12h-720z" clip-rule="evenodd"/>
  </clipPath>
 </defs>
 <metadata>
  <rdf:RDF>
   <cc:Work rdf:about="">
    <dc:format>image/svg+xml</dc:format>
    <dc:type rdf:resource="http://purl.org/dc/dcmitype/StillImage"/>
    <dc:title/>
   </cc:Work>
  </rdf:RDF>
 </metadata>
 <g transform="translate(90.631 -176.72)">
  <g transform="matrix(0 .99997 -.99997 0 44.132 291.7)">
   <g transform="matrix(0 -.35279 -.35279 0 -204.71 359.85)">
    <g clip-path="url(#clipPath4525)">
     <text transform="matrix(1,0,0,-1,158.11,410.45)" fill="#000000" font-family="Arial" font-size="6.96px">
      <tspan x="0 3.8419199 5.7768002 9.6048002" y="0">7,28</tspan>
     </text>
    </g>
   </g>
   <g transform="matrix(0 -.35279 -.35279 0 -204.71 359.85)">
    <g clip-path="url(#clipPath4537)">
     <text transform="matrix(1,0,0,-1,716.47,410.45)" fill="#000000" font-family="Arial" font-size="6.96px">
      <tspan x="0 3.8419199 7.6838398 9.6187201 13.44672" y="0">12,42</tspan>
     </text>
    </g>
   </g>
   <g transform="matrix(0 -.35279 -.35279 0 -204.71 359.85)">
    <g clip-path="url(#clipPath4573)">
     <text transform="matrix(1,0,0,-1,221.88,410.45)" fill="#000000" font-family="Arial" font-size="6.96px">
      <tspan x="0 3.8419199 5.7768002 9.6048002" y="0">5,03</tspan>
     </text>
    </g>
   </g>
   <path d="m-109.19 40.522c-3.2069 0-5.7932 2.4158-5.7932 5.4048 0 2.8753 2.4064 5.2248 5.4474 5.3859v83.455h1.0232v-83.464c2.8848-0.32686 5.1253-2.61 5.1253-5.3764 0-2.989-2.61-5.4048-5.8027-5.4048z" fill="#007d59" fill-rule="evenodd"/>
  </g>
 </g>
</svg>
